AXI_UVM_TB_2/sim/log4.log
# vsim -cvgperinstance -vopt -voptargs="+acc" -coverage -sva -sv_seed random work.top -wlf incr_burst.wlf -l log4.log -c -do "log -r /*; coverage save -onexit cov4; run -all; exit" "+UVM_TESTNAME=incr_burst_test" 
# Start time: 20:05:04 on Mar 31,2026
# ** Note: (vsim-3813) Design is being optimized due to module recompilation...
# ** Warning: (vopt-10587) Some optimizations are turned off because the +acc switch is in effect. This will cause your simulation to run slowly. Please use -access/-debug to maintain needed visibility. The +acc switch would be deprecated in a future release.
# ** Note: (vsim-12126) Error and warning message counts have been restored: Errors=0, Warnings=1.
# //  Questa Sim-64
# //  Version 2024.2 linux_x86_64 May 20 2024
# //
# // Unpublished work. Copyright 2024 Siemens
# //
# // This material contains trade secrets or otherwise confidential information
# // owned by Siemens Industry Software Inc. or its affiliates (collectively,
# // "SISW"), or its licensors. Access to and use of this information is strictly
# // limited as set forth in the Customer's applicable agreements with SISW.
# //
# // This material may not be copied, distributed, or otherwise disclosed outside
# // of the Customer's facilities without the express written permission of SISW,
# // and may not be used in any way not expressly authorized by SISW.
# //
# Loading sv_std.std
# Loading work.axi(fast)
# Loading mtiUvm.uvm_pkg(fast)
# Loading work.Axi_pkg(fast)
# Loading mtiUvm.questa_uvm_pkg(fast)
# Loading work.top(fast)
# Loading work.axi(fast__2)
# Loading /pkgs/mentor/questa/2024.2/questasim/uvm-1.1d/linux_x86_64/uvm_dpi.so
# ** Warning: (vsim-8634) Code was not compiled with coverage options.
# Sv_Seed = 4000413498
# log -r /*
#  coverage save -onexit cov4
#  run -all
# ----------------------------------------------------------------
# UVM-1.1d
# (C) 2007-2013 Mentor Graphics Corporation
# (C) 2007-2013 Cadence Design Systems, Inc.
# (C) 2006-2013 Synopsys, Inc.
# (C) 2011-2013 Cypress Semiconductor Corp.
# ----------------------------------------------------------------
# 
#   ***********       IMPORTANT RELEASE NOTES         ************
# 
#   You are using a version of the UVM library that has been compiled
#   with `UVM_NO_DEPRECATED undefined.
#   See http://www.eda.org/svdb/view.php?id=3313 for more details.
# 
#   You are using a version of the UVM library that has been compiled
#   with `UVM_OBJECT_MUST_HAVE_CONSTRUCTOR undefined.
#   See http://www.eda.org/svdb/view.php?id=3770 for more details.
# 
#       (Specify +UVM_NO_RELNOTES to turn off this notice)
# 
# UVM_INFO verilog_src/questa_uvm_pkg-1.2/src/questa_uvm_pkg.sv(277) @ 0: reporter [Questa UVM] QUESTA_UVM-1.2.3
# UVM_INFO verilog_src/questa_uvm_pkg-1.2/src/questa_uvm_pkg.sv(278) @ 0: reporter [Questa UVM]  questa_uvm::init(+struct)
# UVM_INFO @ 0: reporter [RNTST] Running test incr_burst_test...
# UVM_INFO @ 0: reporter [UVMTOP] UVM testbench topology:
# ------------------------------------------------------------------
# Name                       Type                        Size  Value
# ------------------------------------------------------------------
# uvm_test_top               incr_burst_test             -     @474 
#   envh                     env                         -     @498 
#     m_agenth               master_agent                -     @506 
#       drvh                 master_driver               -     @660 
#         rsp_port           uvm_analysis_port           -     @675 
#         seq_item_port      uvm_seq_item_pull_port      -     @667 
#       monh                 master_monitor              -     @637 
#         analysis_port_rd   uvm_analysis_port           -     @652 
#         analysis_port_wr   uvm_analysis_port           -     @644 
#       seqrh                master_sequencer            -     @683 
#         rsp_export         uvm_analysis_export         -     @690 
#         seq_item_export    uvm_seq_item_pull_imp       -     @784 
#         arbitration_queue  array                       0     -    
#         lock_queue         array                       0     -    
#         num_last_reqs      integral                    32    'd1  
#         num_last_rsps      integral                    32    'd1  
#     s_agenth               slave_agent                 -     @513 
#       drvh                 slave_driver                -     @824 
#         rsp_port           uvm_analysis_port           -     @839 
#         seq_item_port      uvm_seq_item_pull_port      -     @831 
#       monh                 slave_monitor               -     @801 
#         analysis_port_rd   uvm_analysis_port           -     @816 
#         analysis_port_wr   uvm_analysis_port           -     @808 
#       seqrh                slave_sequencer             -     @847 
#         rsp_export         uvm_analysis_export         -     @854 
#         seq_item_export    uvm_seq_item_pull_imp       -     @948 
#         arbitration_queue  array                       0     -    
#         lock_queue         array                       0     -    
#         num_last_reqs      integral                    32    'd1  
#         num_last_rsps      integral                    32    'd1  
#     sb                     score_board                 -     @520 
#       m_rd_fifo            uvm_tlm_analysis_fifo #(T)  -     @1058
#         analysis_export    uvm_analysis_imp            -     @1097
#         get_ap             uvm_analysis_port           -     @1089
#         get_peek_export    uvm_get_peek_imp            -     @1073
#         put_ap             uvm_analysis_port           -     @1081
#         put_export         uvm_put_imp                 -     @1065
#       m_wr_fifo            uvm_tlm_analysis_fifo #(T)  -     @964 
#         analysis_export    uvm_analysis_imp            -     @1003
#         get_ap             uvm_analysis_port           -     @995 
#         get_peek_export    uvm_get_peek_imp            -     @979 
#         put_ap             uvm_analysis_port           -     @987 
#         put_export         uvm_put_imp                 -     @971 
#       s_rd_fifo            uvm_tlm_analysis_fifo #(T)  -     @1105
#         analysis_export    uvm_analysis_imp            -     @1144
#         get_ap             uvm_analysis_port           -     @1136
#         get_peek_export    uvm_get_peek_imp            -     @1120
#         put_ap             uvm_analysis_port           -     @1128
#         put_export         uvm_put_imp                 -     @1112
#       s_wr_fifo            uvm_tlm_analysis_fifo #(T)  -     @1011
#         analysis_export    uvm_analysis_imp            -     @1050
#         get_ap             uvm_analysis_port           -     @1042
#         get_peek_export    uvm_get_peek_imp            -     @1026
#         put_ap             uvm_analysis_port           -     @1034
#         put_export         uvm_put_imp                 -     @1018
#     seqrh                  virtual_sequencer           -     @527 
#       m_seqrh              master_sequencer            -     @1153
#         rsp_export         uvm_analysis_export         -     @1160
#         seq_item_export    uvm_seq_item_pull_imp       -     @1254
#         arbitration_queue  array                       0     -    
#         lock_queue         array                       0     -    
#         num_last_reqs      integral                    32    'd1  
#         num_last_rsps      integral                    32    'd1  
#       rsp_export           uvm_analysis_export         -     @534 
#       s_seqrh              slave_sequencer             -     @1262
#         rsp_export         uvm_analysis_export         -     @1269
#         seq_item_export    uvm_seq_item_pull_imp       -     @1363
#         arbitration_queue  array                       0     -    
#         lock_queue         array                       0     -    
#         num_last_reqs      integral                    32    'd1  
#         num_last_rsps      integral                    32    'd1  
#       seq_item_export      uvm_seq_item_pull_imp       -     @628 
#       arbitration_queue    array                       0     -    
#       lock_queue           array                       0     -    
#       num_last_reqs        integral                    32    'd1  
#       num_last_rsps        integral                    32    'd1  
# ------------------------------------------------------------------
# 
# UVM_INFO ../master_uvc/master_sequence.sv(182) @ 0: uvm_test_top.envh.m_agenth.seqrh@@seq [incr_burst_seq] INCR WR: AWID=0 AWADDR=0x0000ad7c AWLEN=13
# UVM_INFO ../master_uvc/master_sequence.sv(197) @ 0: uvm_test_top.envh.m_agenth.seqrh@@seq [incr_burst_seq] INCR RD: ARID=0 ARADDR=0x0000e6fb ARLEN=5
# UVM_INFO ../master_uvc/master_sequence.sv(182) @ 0: uvm_test_top.envh.m_agenth.seqrh@@seq [incr_burst_seq] INCR WR: AWID=1 AWADDR=0x0000b1bf AWLEN=2
# UVM_INFO ../master_uvc/master_sequence.sv(197) @ 0: uvm_test_top.envh.m_agenth.seqrh@@seq [incr_burst_seq] INCR RD: ARID=1 ARADDR=0x0000f3a9 ARLEN=12
# UVM_INFO ../master_uvc/master_sequence.sv(182) @ 0: uvm_test_top.envh.m_agenth.seqrh@@seq [incr_burst_seq] INCR WR: AWID=2 AWADDR=0x00000660 AWLEN=7
# UVM_INFO ../master_uvc/master_sequence.sv(197) @ 0: uvm_test_top.envh.m_agenth.seqrh@@seq [incr_burst_seq] INCR RD: ARID=2 ARADDR=0x0000f81f ARLEN=9
# UVM_INFO ../master_uvc/master_sequence.sv(182) @ 0: uvm_test_top.envh.m_agenth.seqrh@@seq [incr_burst_seq] INCR WR: AWID=3 AWADDR=0x0000ad51 AWLEN=7
# UVM_INFO ../master_uvc/master_sequence.sv(197) @ 0: uvm_test_top.envh.m_agenth.seqrh@@seq [incr_burst_seq] INCR RD: ARID=3 ARADDR=0x0000ed35 ARLEN=3
# UVM_INFO ../master_uvc/master_sequence.sv(182) @ 0: uvm_test_top.envh.m_agenth.seqrh@@seq [incr_burst_seq] INCR WR: AWID=4 AWADDR=0x00002163 AWLEN=6
# UVM_INFO ../master_uvc/master_sequence.sv(197) @ 0: uvm_test_top.envh.m_agenth.seqrh@@seq [incr_burst_seq] INCR RD: ARID=4 ARADDR=0x0000a9b9 ARLEN=2
# UVM_INFO ../master_uvc/master_sequence.sv(182) @ 0: uvm_test_top.envh.m_agenth.seqrh@@seq [incr_burst_seq] INCR WR: AWID=5 AWADDR=0x0000c4a3 AWLEN=3
# UVM_INFO ../master_uvc/master_sequence.sv(197) @ 0: uvm_test_top.envh.m_agenth.seqrh@@seq [incr_burst_seq] INCR RD: ARID=5 ARADDR=0x0000d99f ARLEN=7
# UVM_INFO ../master_uvc/master_sequence.sv(182) @ 0: uvm_test_top.envh.m_agenth.seqrh@@seq [incr_burst_seq] INCR WR: AWID=6 AWADDR=0x0000d9a2 AWLEN=11
# UVM_INFO ../master_uvc/master_sequence.sv(197) @ 0: uvm_test_top.envh.m_agenth.seqrh@@seq [incr_burst_seq] INCR RD: ARID=6 ARADDR=0x00000c8a ARLEN=9
# UVM_INFO ../master_uvc/master_sequence.sv(182) @ 0: uvm_test_top.envh.m_agenth.seqrh@@seq [incr_burst_seq] INCR WR: AWID=7 AWADDR=0x0000ce65 AWLEN=13
# UVM_INFO ../master_uvc/master_sequence.sv(197) @ 0: uvm_test_top.envh.m_agenth.seqrh@@seq [incr_burst_seq] INCR RD: ARID=7 ARADDR=0x0000cbcb ARLEN=3
# UVM_INFO ../master_uvc/master_sequence.sv(182) @ 0: uvm_test_top.envh.m_agenth.seqrh@@seq [incr_burst_seq] INCR WR: AWID=8 AWADDR=0x00005181 AWLEN=12
# UVM_INFO ../master_uvc/master_sequence.sv(197) @ 0: uvm_test_top.envh.m_agenth.seqrh@@seq [incr_burst_seq] INCR RD: ARID=8 ARADDR=0x0000c776 ARLEN=3
# UVM_INFO ../master_uvc/master_sequence.sv(182) @ 0: uvm_test_top.envh.m_agenth.seqrh@@seq [incr_burst_seq] INCR WR: AWID=9 AWADDR=0x0000cd97 AWLEN=2
# UVM_INFO ../master_uvc/master_sequence.sv(197) @ 0: uvm_test_top.envh.m_agenth.seqrh@@seq [incr_burst_seq] INCR RD: ARID=9 ARADDR=0x0000305a ARLEN=8
# UVM_INFO ../test/virtual_sequence.sv(110) @ 0: uvm_test_top.envh.seqrh@@seq [incr_burst_v_seq] incr_burst_v_seq completed
# UVM_INFO ../master_uvc/master_driver.sv(335) @ 265: uvm_test_top.envh.m_agenth.drvh [master_driver] RD COMPLETE: ARID=0 freed
# UVM_INFO ../master_uvc/master_monitor.sv(230) @ 265: uvm_test_top.envh.m_agenth.monh [master_monitor] MON RD_DATA: ARID=0 beats=6
# UVM_INFO ../slave_uvc/slave_monitor.sv(199) @ 265: uvm_test_top.envh.s_agenth.monh [slave_monitor] SLV MON RD_DATA: ARID=0 beats=6
# UVM_INFO ../tb/score_board.sv(138) @ 265: uvm_test_top.envh.sb [score_board] READ  compare: ARID=0 ARADDR=0x0000e6fb ARBURST=1 ARLEN=5
# UVM_INFO ../tb/score_board.sv(149) @ 265: uvm_test_top.envh.sb [score_board] READ  MATCH: ARID=0 ARADDR=0x0000e6fb ARBURST=1
# UVM_INFO ../master_uvc/master_driver.sv(335) @ 685: uvm_test_top.envh.m_agenth.drvh [master_driver] RD COMPLETE: ARID=1 freed
# UVM_INFO ../master_uvc/master_monitor.sv(230) @ 685: uvm_test_top.envh.m_agenth.monh [master_monitor] MON RD_DATA: ARID=1 beats=13
# UVM_INFO ../slave_uvc/slave_monitor.sv(199) @ 685: uvm_test_top.envh.s_agenth.monh [slave_monitor] SLV MON RD_DATA: ARID=1 beats=13
# UVM_INFO ../tb/score_board.sv(138) @ 685: uvm_test_top.envh.sb [score_board] READ  compare: ARID=1 ARADDR=0x0000f3a9 ARBURST=1 ARLEN=12
# UVM_INFO ../tb/score_board.sv(149) @ 685: uvm_test_top.envh.sb [score_board] READ  MATCH: ARID=1 ARADDR=0x0000f3a9 ARBURST=1
# UVM_INFO ../master_uvc/master_driver.sv(252) @ 725: uvm_test_top.envh.m_agenth.drvh [master_driver] WR COMPLETE: AWID=0 freed
# UVM_INFO ../master_uvc/master_monitor.sv(151) @ 725: uvm_test_top.envh.m_agenth.monh [master_monitor] MON WR_RESP: AWID=0 BRESP=0
# UVM_INFO ../slave_uvc/slave_monitor.sv(131) @ 725: uvm_test_top.envh.s_agenth.monh [slave_monitor] SLV MON WR_RESP: AWID=0 BRESP=0
# UVM_INFO ../tb/score_board.sv(107) @ 725: uvm_test_top.envh.sb [score_board] WRITE compare: AWID=0 AWADDR=0x0000ad7c AWBURST=1 AWLEN=13
# UVM_INFO ../tb/score_board.sv(118) @ 725: uvm_test_top.envh.sb [score_board] WRITE MATCH: AWID=0 AWADDR=0x0000ad7c AWBURST=1
# UVM_INFO ../master_uvc/master_driver.sv(252) @ 865: uvm_test_top.envh.m_agenth.drvh [master_driver] WR COMPLETE: AWID=1 freed
# UVM_INFO ../master_uvc/master_monitor.sv(151) @ 865: uvm_test_top.envh.m_agenth.monh [master_monitor] MON WR_RESP: AWID=1 BRESP=0
# UVM_INFO ../slave_uvc/slave_monitor.sv(131) @ 865: uvm_test_top.envh.s_agenth.monh [slave_monitor] SLV MON WR_RESP: AWID=1 BRESP=0
# UVM_INFO ../tb/score_board.sv(107) @ 865: uvm_test_top.envh.sb [score_board] WRITE compare: AWID=1 AWADDR=0x0000b1bf AWBURST=1 AWLEN=2
# UVM_INFO ../tb/score_board.sv(118) @ 865: uvm_test_top.envh.sb [score_board] WRITE MATCH: AWID=1 AWADDR=0x0000b1bf AWBURST=1
# UVM_INFO ../master_uvc/master_driver.sv(335) @ 965: uvm_test_top.envh.m_agenth.drvh [master_driver] RD COMPLETE: ARID=2 freed
# UVM_INFO ../master_uvc/master_monitor.sv(230) @ 965: uvm_test_top.envh.m_agenth.monh [master_monitor] MON RD_DATA: ARID=2 beats=10
# UVM_INFO ../slave_uvc/slave_monitor.sv(199) @ 965: uvm_test_top.envh.s_agenth.monh [slave_monitor] SLV MON RD_DATA: ARID=2 beats=10
# UVM_INFO ../tb/score_board.sv(138) @ 965: uvm_test_top.envh.sb [score_board] READ  compare: ARID=2 ARADDR=0x0000f81f ARBURST=1 ARLEN=9
# UVM_INFO ../tb/score_board.sv(149) @ 965: uvm_test_top.envh.sb [score_board] READ  MATCH: ARID=2 ARADDR=0x0000f81f ARBURST=1
# UVM_INFO ../master_uvc/master_driver.sv(335) @ 1095: uvm_test_top.envh.m_agenth.drvh [master_driver] RD COMPLETE: ARID=3 freed
# UVM_INFO ../master_uvc/master_monitor.sv(230) @ 1095: uvm_test_top.envh.m_agenth.monh [master_monitor] MON RD_DATA: ARID=3 beats=4
# UVM_INFO ../slave_uvc/slave_monitor.sv(199) @ 1095: uvm_test_top.envh.s_agenth.monh [slave_monitor] SLV MON RD_DATA: ARID=3 beats=4
# UVM_INFO ../tb/score_board.sv(138) @ 1095: uvm_test_top.envh.sb [score_board] READ  compare: ARID=3 ARADDR=0x0000ed35 ARBURST=1 ARLEN=3
# UVM_INFO ../tb/score_board.sv(149) @ 1095: uvm_test_top.envh.sb [score_board] READ  MATCH: ARID=3 ARADDR=0x0000ed35 ARBURST=1
# UVM_INFO ../master_uvc/master_driver.sv(252) @ 1205: uvm_test_top.envh.m_agenth.drvh [master_driver] WR COMPLETE: AWID=2 freed
# UVM_INFO ../master_uvc/master_driver.sv(335) @ 1205: uvm_test_top.envh.m_agenth.drvh [master_driver] RD COMPLETE: ARID=4 freed
# UVM_INFO ../master_uvc/master_monitor.sv(230) @ 1205: uvm_test_top.envh.m_agenth.monh [master_monitor] MON RD_DATA: ARID=4 beats=3
# UVM_INFO ../master_uvc/master_monitor.sv(151) @ 1205: uvm_test_top.envh.m_agenth.monh [master_monitor] MON WR_RESP: AWID=2 BRESP=0
# UVM_INFO ../slave_uvc/slave_monitor.sv(199) @ 1205: uvm_test_top.envh.s_agenth.monh [slave_monitor] SLV MON RD_DATA: ARID=4 beats=3
# UVM_INFO ../slave_uvc/slave_monitor.sv(131) @ 1205: uvm_test_top.envh.s_agenth.monh [slave_monitor] SLV MON WR_RESP: AWID=2 BRESP=0
# UVM_INFO ../tb/score_board.sv(138) @ 1205: uvm_test_top.envh.sb [score_board] READ  compare: ARID=4 ARADDR=0x0000a9b9 ARBURST=1 ARLEN=2
# UVM_INFO ../tb/score_board.sv(149) @ 1205: uvm_test_top.envh.sb [score_board] READ  MATCH: ARID=4 ARADDR=0x0000a9b9 ARBURST=1
# UVM_INFO ../tb/score_board.sv(107) @ 1205: uvm_test_top.envh.sb [score_board] WRITE compare: AWID=2 AWADDR=0x00000660 AWBURST=1 AWLEN=7
# UVM_INFO ../tb/score_board.sv(118) @ 1205: uvm_test_top.envh.sb [score_board] WRITE MATCH: AWID=2 AWADDR=0x00000660 AWBURST=1
# UVM_INFO ../master_uvc/master_driver.sv(335) @ 1435: uvm_test_top.envh.m_agenth.drvh [master_driver] RD COMPLETE: ARID=5 freed
# UVM_INFO ../master_uvc/master_monitor.sv(230) @ 1435: uvm_test_top.envh.m_agenth.monh [master_monitor] MON RD_DATA: ARID=5 beats=8
# UVM_INFO ../slave_uvc/slave_monitor.sv(199) @ 1435: uvm_test_top.envh.s_agenth.monh [slave_monitor] SLV MON RD_DATA: ARID=5 beats=8
# UVM_INFO ../tb/score_board.sv(138) @ 1435: uvm_test_top.envh.sb [score_board] READ  compare: ARID=5 ARADDR=0x0000d99f ARBURST=1 ARLEN=7
# UVM_INFO ../tb/score_board.sv(149) @ 1435: uvm_test_top.envh.sb [score_board] READ  MATCH: ARID=5 ARADDR=0x0000d99f ARBURST=1
# UVM_INFO ../master_uvc/master_driver.sv(252) @ 1535: uvm_test_top.envh.m_agenth.drvh [master_driver] WR COMPLETE: AWID=3 freed
# UVM_INFO ../master_uvc/master_monitor.sv(151) @ 1535: uvm_test_top.envh.m_agenth.monh [master_monitor] MON WR_RESP: AWID=3 BRESP=0
# UVM_INFO ../slave_uvc/slave_monitor.sv(131) @ 1535: uvm_test_top.envh.s_agenth.monh [slave_monitor] SLV MON WR_RESP: AWID=3 BRESP=0
# UVM_INFO ../tb/score_board.sv(107) @ 1535: uvm_test_top.envh.sb [score_board] WRITE compare: AWID=3 AWADDR=0x0000ad51 AWBURST=1 AWLEN=7
# UVM_INFO ../tb/score_board.sv(118) @ 1535: uvm_test_top.envh.sb [score_board] WRITE MATCH: AWID=3 AWADDR=0x0000ad51 AWBURST=1
# UVM_INFO ../master_uvc/master_driver.sv(335) @ 1735: uvm_test_top.envh.m_agenth.drvh [master_driver] RD COMPLETE: ARID=6 freed
# UVM_INFO ../master_uvc/master_monitor.sv(230) @ 1735: uvm_test_top.envh.m_agenth.monh [master_monitor] MON RD_DATA: ARID=6 beats=10
# UVM_INFO ../slave_uvc/slave_monitor.sv(199) @ 1735: uvm_test_top.envh.s_agenth.monh [slave_monitor] SLV MON RD_DATA: ARID=6 beats=10
# UVM_INFO ../tb/score_board.sv(138) @ 1735: uvm_test_top.envh.sb [score_board] READ  compare: ARID=6 ARADDR=0x00000c8a ARBURST=1 ARLEN=9
# UVM_INFO ../tb/score_board.sv(149) @ 1735: uvm_test_top.envh.sb [score_board] READ  MATCH: ARID=6 ARADDR=0x00000c8a ARBURST=1
# UVM_INFO ../master_uvc/master_driver.sv(335) @ 1875: uvm_test_top.envh.m_agenth.drvh [master_driver] RD COMPLETE: ARID=7 freed
# UVM_INFO ../master_uvc/master_monitor.sv(230) @ 1875: uvm_test_top.envh.m_agenth.monh [master_monitor] MON RD_DATA: ARID=7 beats=4
# UVM_INFO ../slave_uvc/slave_monitor.sv(199) @ 1875: uvm_test_top.envh.s_agenth.monh [slave_monitor] SLV MON RD_DATA: ARID=7 beats=4
# UVM_INFO ../tb/score_board.sv(138) @ 1875: uvm_test_top.envh.sb [score_board] READ  compare: ARID=7 ARADDR=0x0000cbcb ARBURST=1 ARLEN=3
# UVM_INFO ../tb/score_board.sv(149) @ 1875: uvm_test_top.envh.sb [score_board] READ  MATCH: ARID=7 ARADDR=0x0000cbcb ARBURST=1
# UVM_INFO ../master_uvc/master_driver.sv(252) @ 1885: uvm_test_top.envh.m_agenth.drvh [master_driver] WR COMPLETE: AWID=4 freed
# UVM_INFO ../master_uvc/master_monitor.sv(151) @ 1885: uvm_test_top.envh.m_agenth.monh [master_monitor] MON WR_RESP: AWID=4 BRESP=0
# UVM_INFO ../slave_uvc/slave_monitor.sv(131) @ 1885: uvm_test_top.envh.s_agenth.monh [slave_monitor] SLV MON WR_RESP: AWID=4 BRESP=0
# UVM_INFO ../tb/score_board.sv(107) @ 1885: uvm_test_top.envh.sb [score_board] WRITE compare: AWID=4 AWADDR=0x00002163 AWBURST=1 AWLEN=6
# UVM_INFO ../tb/score_board.sv(118) @ 1885: uvm_test_top.envh.sb [score_board] WRITE MATCH: AWID=4 AWADDR=0x00002163 AWBURST=1
# UVM_INFO ../master_uvc/master_driver.sv(335) @ 2035: uvm_test_top.envh.m_agenth.drvh [master_driver] RD COMPLETE: ARID=8 freed
# UVM_INFO ../master_uvc/master_monitor.sv(230) @ 2035: uvm_test_top.envh.m_agenth.monh [master_monitor] MON RD_DATA: ARID=8 beats=4
# UVM_INFO ../slave_uvc/slave_monitor.sv(199) @ 2035: uvm_test_top.envh.s_agenth.monh [slave_monitor] SLV MON RD_DATA: ARID=8 beats=4
# UVM_INFO ../tb/score_board.sv(138) @ 2035: uvm_test_top.envh.sb [score_board] READ  compare: ARID=8 ARADDR=0x0000c776 ARBURST=1 ARLEN=3
# UVM_INFO ../tb/score_board.sv(149) @ 2035: uvm_test_top.envh.sb [score_board] READ  MATCH: ARID=8 ARADDR=0x0000c776 ARBURST=1
# UVM_INFO ../master_uvc/master_driver.sv(252) @ 2055: uvm_test_top.envh.m_agenth.drvh [master_driver] WR COMPLETE: AWID=5 freed
# UVM_INFO ../master_uvc/master_monitor.sv(151) @ 2055: uvm_test_top.envh.m_agenth.monh [master_monitor] MON WR_RESP: AWID=5 BRESP=0
# UVM_INFO ../slave_uvc/slave_monitor.sv(131) @ 2055: uvm_test_top.envh.s_agenth.monh [slave_monitor] SLV MON WR_RESP: AWID=5 BRESP=0
# UVM_INFO ../tb/score_board.sv(107) @ 2055: uvm_test_top.envh.sb [score_board] WRITE compare: AWID=5 AWADDR=0x0000c4a3 AWBURST=1 AWLEN=3
# UVM_INFO ../tb/score_board.sv(118) @ 2055: uvm_test_top.envh.sb [score_board] WRITE MATCH: AWID=5 AWADDR=0x0000c4a3 AWBURST=1
# UVM_INFO ../master_uvc/master_driver.sv(335) @ 2335: uvm_test_top.envh.m_agenth.drvh [master_driver] RD COMPLETE: ARID=9 freed
# UVM_INFO ../master_uvc/master_monitor.sv(230) @ 2335: uvm_test_top.envh.m_agenth.monh [master_monitor] MON RD_DATA: ARID=9 beats=9
# UVM_INFO ../slave_uvc/slave_monitor.sv(199) @ 2335: uvm_test_top.envh.s_agenth.monh [slave_monitor] SLV MON RD_DATA: ARID=9 beats=9
# UVM_INFO ../tb/score_board.sv(138) @ 2335: uvm_test_top.envh.sb [score_board] READ  compare: ARID=9 ARADDR=0x0000305a ARBURST=1 ARLEN=8
# UVM_INFO ../tb/score_board.sv(149) @ 2335: uvm_test_top.envh.sb [score_board] READ  MATCH: ARID=9 ARADDR=0x0000305a ARBURST=1
# UVM_INFO ../master_uvc/master_driver.sv(252) @ 2555: uvm_test_top.envh.m_agenth.drvh [master_driver] WR COMPLETE: AWID=6 freed
# UVM_INFO ../master_uvc/master_monitor.sv(151) @ 2555: uvm_test_top.envh.m_agenth.monh [master_monitor] MON WR_RESP: AWID=6 BRESP=0
# UVM_INFO ../slave_uvc/slave_monitor.sv(131) @ 2555: uvm_test_top.envh.s_agenth.monh [slave_monitor] SLV MON WR_RESP: AWID=6 BRESP=0
# UVM_INFO ../tb/score_board.sv(107) @ 2555: uvm_test_top.envh.sb [score_board] WRITE compare: AWID=6 AWADDR=0x0000d9a2 AWBURST=1 AWLEN=11
# UVM_INFO ../tb/score_board.sv(118) @ 2555: uvm_test_top.envh.sb [score_board] WRITE MATCH: AWID=6 AWADDR=0x0000d9a2 AWBURST=1
# UVM_INFO ../master_uvc/master_driver.sv(252) @ 3245: uvm_test_top.envh.m_agenth.drvh [master_driver] WR COMPLETE: AWID=7 freed
# UVM_INFO ../master_uvc/master_monitor.sv(151) @ 3245: uvm_test_top.envh.m_agenth.monh [master_monitor] MON WR_RESP: AWID=7 BRESP=0
# UVM_INFO ../slave_uvc/slave_monitor.sv(131) @ 3245: uvm_test_top.envh.s_agenth.monh [slave_monitor] SLV MON WR_RESP: AWID=7 BRESP=0
# UVM_INFO ../tb/score_board.sv(107) @ 3245: uvm_test_top.envh.sb [score_board] WRITE compare: AWID=7 AWADDR=0x0000ce65 AWBURST=1 AWLEN=13
# UVM_INFO ../tb/score_board.sv(118) @ 3245: uvm_test_top.envh.sb [score_board] WRITE MATCH: AWID=7 AWADDR=0x0000ce65 AWBURST=1
# UVM_INFO ../master_uvc/master_driver.sv(252) @ 3895: uvm_test_top.envh.m_agenth.drvh [master_driver] WR COMPLETE: AWID=8 freed
# UVM_INFO ../master_uvc/master_monitor.sv(151) @ 3895: uvm_test_top.envh.m_agenth.monh [master_monitor] MON WR_RESP: AWID=8 BRESP=0
# UVM_INFO ../slave_uvc/slave_monitor.sv(131) @ 3895: uvm_test_top.envh.s_agenth.monh [slave_monitor] SLV MON WR_RESP: AWID=8 BRESP=0
# UVM_INFO ../tb/score_board.sv(107) @ 3895: uvm_test_top.envh.sb [score_board] WRITE compare: AWID=8 AWADDR=0x00005181 AWBURST=1 AWLEN=12
# UVM_INFO ../tb/score_board.sv(118) @ 3895: uvm_test_top.envh.sb [score_board] WRITE MATCH: AWID=8 AWADDR=0x00005181 AWBURST=1
# UVM_INFO ../master_uvc/master_driver.sv(252) @ 4035: uvm_test_top.envh.m_agenth.drvh [master_driver] WR COMPLETE: AWID=9 freed
# UVM_INFO ../master_uvc/master_monitor.sv(151) @ 4035: uvm_test_top.envh.m_agenth.monh [master_monitor] MON WR_RESP: AWID=9 BRESP=0
# UVM_INFO ../slave_uvc/slave_monitor.sv(131) @ 4035: uvm_test_top.envh.s_agenth.monh [slave_monitor] SLV MON WR_RESP: AWID=9 BRESP=0
# UVM_INFO ../tb/score_board.sv(107) @ 4035: uvm_test_top.envh.sb [score_board] WRITE compare: AWID=9 AWADDR=0x0000cd97 AWBURST=1 AWLEN=2
# UVM_INFO ../tb/score_board.sv(118) @ 4035: uvm_test_top.envh.sb [score_board] WRITE MATCH: AWID=9 AWADDR=0x0000cd97 AWBURST=1
# UVM_INFO verilog_src/uvm-1.1d/src/base/uvm_objection.svh(1267) @ 6995: reporter [TEST_DONE] 'run' phase is ready to proceed to the 'extract' phase
# UVM_INFO ../tb/score_board.sv(197) @ 6995: uvm_test_top.envh.sb [score_board] 
# 
# ============================================
#   AXI VIP SCOREBOARD REPORT
# ============================================
#   Write seen      : 10
#   Write matched   : 10
#   Write mismatched: 0
# --------------------------------------------
#   Read  seen      : 10
#   Read  matched   : 10
#   Read  mismatched: 0
# ============================================
# 
# 
# UVM_INFO ../tb/score_board.sv(215) @ 6995: uvm_test_top.envh.sb [score_board] TEST PASSED – all transactions matched
# 
# --- UVM Report Summary ---
# 
# ** Report counts by severity
# UVM_INFO :  128
# UVM_WARNING :    0
# UVM_ERROR :    0
# UVM_FATAL :    0
# ** Report counts by id
# [Questa UVM]     2
# [RNTST]     1
# [TEST_DONE]     1
# [UVMTOP]     1
# [incr_burst_seq]    20
# [incr_burst_v_seq]     1
# [master_driver]    20
# [master_monitor]    20
# [score_board]    42
# [slave_monitor]    20
# ** Note: $finish    : /pkgs/mentor/questa/2024.2/questasim/linux_x86_64/../verilog_src/uvm-1.1d/src/base/uvm_root.svh(430)
#    Time: 6995 ns  Iteration: 55  Instance: /top
# Saving coverage database on exit...
# End time: 20:05:09 on Mar 31,2026, Elapsed time: 0:00:05
# Errors: 0, Warnings: 2
